{
  "page": 1,
  "pageSize": 3,
  "totalTopics": 9,
  "lastPage": 3,
  "topics": [
    {
      "id": "classification:Artists' Tools",
      "name": "Artists' Tools",
      "count": 24,
      "subtopics": [
        {
          "id": "era:20th century",
          "name": "20th century",
          "eraSource": "century",
          "count": 24,
          "items": [
            {
              "id": 330841,
              "title": "Paint roller",
              "classification": "Artists' Tools",
              "era": "20th century",
              "eraSource": "century",
              "period": null,
              "century": "20th century",
              "dated": "20th century",
              "culture": "American",
              "medium": null,
              "people": [],
              "imageUrl": "https://nrs.harvard.edu/urn-3:HUAM:STR019009",
              "museumUrl": "https://www.harvardartmuseums.org/collections/object/330841",
              "lastUpdate": "2026-05-09T04:39:24-04:00"
            },
            {
              "id": 330863,
              "title": "Paint roller frame",
              "classification": "Artists' Tools",
              "era": "20th century",
              "eraSource": "century",
              "period": null,
              "century": "20th century",
              "dated": "20th century",
              "culture": "American",
              "medium": null,
              "people": [],
              "imageUrl": "https://nrs.harvard.edu/urn-3:HUAM:STR019025",
              "museumUrl": "https://www.harvardartmuseums.org/collections/object/330863",
              "lastUpdate": "2026-05-09T04:39:24-04:00"
            },
            {
              "id": 332456,
              "title": "Plane",
              "classification": "Artists' Tools",
              "era": "20th century",
              "eraSource": "century",
              "period": null,
              "century": "20th century",
              "dated": "20th century",
              "culture": "American",
              "medium": null,
              "people": [],
              "imageUrl": "https://nrs.harvard.edu/urn-3:HUAM:STR019473",
              "museumUrl": "https://www.harvardartmuseums.org/collections/object/332456",
              "lastUpdate": "2026-05-09T04:39:27-04:00"
            },
            {
              "id": 332457,
              "title": "Box of Nupastel color sticks",
              "classification": "Artists' Tools",
              "era": "20th century",
              "eraSource": "century",
              "period": null,
              "century": "20th century",
              "dated": "20th century",
              "culture": "American",
              "medium": null,
              "people": [],
              "imageUrl": "https://nrs.harvard.edu/urn-3:HUAM:STR019454",
              "museumUrl": "https://www.harvardartmuseums.org/collections/object/332457",
              "lastUpdate": "2026-05-09T04:39:27-04:00"
            },
            {
              "id": 332459,
              "title": "Box of No. 8 Crayola crayons",
              "classification": "Artists' Tools",
              "era": "20th century",
              "eraSource": "century",
              "period": null,
              "century": "20th century",
              "dated": "20th century",
              "culture": "American",
              "medium": null,
              "people": [],
              "imageUrl": "https://nrs.harvard.edu/urn-3:HUAM:STR019453",
              "museumUrl": "https://www.harvardartmuseums.org/collections/object/332459",
              "lastUpdate": "2026-05-09T04:39:27-04:00"
            },
            {
              "id": 332460,
              "title": "Box of colored chalks",
              "classification": "Artists' Tools",
              "era": "20th century",
              "eraSource": "century",
              "period": null,
              "century": "20th century",
              "dated": "20th century",
              "culture": "American",
              "medium": null,
              "people": [],
              "imageUrl": "https://nrs.harvard.edu/urn-3:HUAM:STR019216",
              "museumUrl": "https://www.harvardartmuseums.org/collections/object/332460",
              "lastUpdate": "2026-05-09T04:39:27-04:00"
            },
            {
              "id": 332461,
              "title": "Metal box of pins",
              "classification": "Artists' Tools",
              "era": "20th century",
              "eraSource": "century",
              "period": null,
              "century": "20th century",
              "dated": "20th century",
              "culture": "American",
              "medium": null,
              "people": [],
              "imageUrl": "https://nrs.harvard.edu/urn-3:HUAM:STR019212",
              "museumUrl": "https://www.harvardartmuseums.org/collections/object/332461",
              "lastUpdate": "2026-05-09T04:39:27-04:00"
            },
            {
              "id": 332462,
              "title": "Insulin syringe",
              "classification": "Artists' Tools",
              "era": "20th century",
              "eraSource": "century",
              "period": null,
              "century": "20th century",
              "dated": "20th century",
              "culture": "American",
              "medium": null,
              "people": [],
              "imageUrl": "https://nrs.harvard.edu/urn-3:HUAM:STR019451",
              "museumUrl": "https://www.harvardartmuseums.org/collections/object/332462",
              "lastUpdate": "2026-05-09T04:39:27-04:00"
            },
            {
              "id": 332469,
              "title": "Box of erasers",
              "classification": "Artists' Tools",
              "era": "20th century",
              "eraSource": "century",
              "period": null,
              "century": "20th century",
              "dated": "20th century",
              "culture": "American",
              "medium": null,
              "people": [],
              "imageUrl": "https://nrs.harvard.edu/urn-3:HUAM:STR019215",
              "museumUrl": "https://www.harvardartmuseums.org/collections/object/332469",
              "lastUpdate": "2026-05-09T04:39:27-04:00"
            },
            {
              "id": 332470,
              "title": "Box of crayons",
              "classification": "Artists' Tools",
              "era": "20th century",
              "eraSource": "century",
              "period": null,
              "century": "20th century",
              "dated": "20th century",
              "culture": "American",
              "medium": null,
              "people": [],
              "imageUrl": "https://nrs.harvard.edu/urn-3:HUAM:STR019206",
              "museumUrl": "https://www.harvardartmuseums.org/collections/object/332470",
              "lastUpdate": "2026-05-09T04:39:27-04:00"
            },
            {
              "id": 332471,
              "title": "Personalized embosser",
              "classification": "Artists' Tools",
              "era": "20th century",
              "eraSource": "century",
              "period": null,
              "century": "20th century",
              "dated": "20th century",
              "culture": "American",
              "medium": null,
              "people": [],
              "imageUrl": "https://nrs.harvard.edu/urn-3:HUAM:STR019466",
              "museumUrl": "https://www.harvardartmuseums.org/collections/object/332471",
              "lastUpdate": "2026-05-09T04:39:27-04:00"
            },
            {
              "id": 332484,
              "title": "Box of staples",
              "classification": "Artists' Tools",
              "era": "20th century",
              "eraSource": "century",
              "period": null,
              "century": "20th century",
              "dated": "20th century",
              "culture": "American",
              "medium": null,
              "people": [],
              "imageUrl": "https://nrs.harvard.edu/urn-3:HUAM:STR019585",
              "museumUrl": "https://www.harvardartmuseums.org/collections/object/332484",
              "lastUpdate": "2026-05-09T04:39:27-04:00"
            },
            {
              "id": 332485,
              "title": "Box of staples",
              "classification": "Artists' Tools",
              "era": "20th century",
              "eraSource": "century",
              "period": null,
              "century": "20th century",
              "dated": "20th century",
              "culture": "American",
              "medium": null,
              "people": [],
              "imageUrl": "https://nrs.harvard.edu/urn-3:HUAM:STR019579",
              "museumUrl": "https://www.harvardartmuseums.org/collections/object/332485",
              "lastUpdate": "2026-05-09T04:39:27-04:00"
            },
            {
              "id": 332486,
              "title": "Box of staples",
              "classification": "Artists' Tools",
              "era": "20th century",
              "eraSource": "century",
              "period": null,
              "century": "20th century",
              "dated": "20th century",
              "culture": "American",
              "medium": null,
              "people": [],
              "imageUrl": "https://nrs.harvard.edu/urn-3:HUAM:STR019573",
              "museumUrl": "https://www.harvardartmuseums.org/collections/object/332486",
              "lastUpdate": "2026-05-09T04:39:27-04:00"
            },
            {
              "id": 332508,
              "title": "Fabric tape",
              "classification": "Artists' Tools",
              "era": "20th century",
              "eraSource": "century",
              "period": null,
              "century": "20th century",
              "dated": "20th century",
              "culture": "American",
              "medium": null,
              "people": [],
              "imageUrl": "https://nrs.harvard.edu/urn-3:HUAM:STR019309",
              "museumUrl": "https://www.harvardartmuseums.org/collections/object/332508",
              "lastUpdate": "2026-05-09T04:39:27-04:00"
            },
            {
              "id": 332509,
              "title": "Tongue depressor",
              "classification": "Artists' Tools",
              "era": "20th century",
              "eraSource": "century",
              "period": null,
              "century": "20th century",
              "dated": "20th century",
              "culture": "American",
              "medium": null,
              "people": [],
              "imageUrl": "https://nrs.harvard.edu/urn-3:HUAM:STR019103",
              "museumUrl": "https://www.harvardartmuseums.org/collections/object/332509",
              "lastUpdate": "2026-05-09T04:39:27-04:00"
            },
            {
              "id": 332510,
              "title": "Level",
              "classification": "Artists' Tools",
              "era": "20th century",
              "eraSource": "century",
              "period": null,
              "century": "20th century",
              "dated": "20th century",
              "culture": "American",
              "medium": null,
              "people": [],
              "imageUrl": "https://nrs.harvard.edu/urn-3:HUAM:STR019501",
              "museumUrl": "https://www.harvardartmuseums.org/collections/object/332510",
              "lastUpdate": "2026-05-09T04:39:27-04:00"
            },
            {
              "id": 332511,
              "title": "Wooden paint stirrer",
              "classification": "Artists' Tools",
              "era": "20th century",
              "eraSource": "century",
              "period": null,
              "century": "20th century",
              "dated": "20th century",
              "culture": "American",
              "medium": null,
              "people": [],
              "imageUrl": "https://nrs.harvard.edu/urn-3:HUAM:STR019504",
              "museumUrl": "https://www.harvardartmuseums.org/collections/object/332511",
              "lastUpdate": "2026-05-09T04:39:27-04:00"
            },
            {
              "id": 332512,
              "title": "Wooden paint stirrer",
              "classification": "Artists' Tools",
              "era": "20th century",
              "eraSource": "century",
              "period": null,
              "century": "20th century",
              "dated": "20th century",
              "culture": "American",
              "medium": null,
              "people": [],
              "imageUrl": "https://nrs.harvard.edu/urn-3:HUAM:STR019350",
              "museumUrl": "https://www.harvardartmuseums.org/collections/object/332512",
              "lastUpdate": "2026-05-09T04:39:27-04:00"
            },
            {
              "id": 332515,
              "title": "Rubber spatula",
              "classification": "Artists' Tools",
              "era": "20th century",
              "eraSource": "century",
              "period": null,
              "century": "20th century",
              "dated": "20th century",
              "culture": "American",
              "medium": null,
              "people": [],
              "imageUrl": "https://nrs.harvard.edu/urn-3:HUAM:STR019431",
              "museumUrl": "https://www.harvardartmuseums.org/collections/object/332515",
              "lastUpdate": "2026-05-09T04:39:27-04:00"
            },
            {
              "id": 332516,
              "title": "Hammer",
              "classification": "Artists' Tools",
              "era": "20th century",
              "eraSource": "century",
              "period": null,
              "century": "20th century",
              "dated": "20th century",
              "culture": "American",
              "medium": null,
              "people": [],
              "imageUrl": "https://nrs.harvard.edu/urn-3:HUAM:STR019520",
              "museumUrl": "https://www.harvardartmuseums.org/collections/object/332516",
              "lastUpdate": "2026-05-09T04:39:27-04:00"
            },
            {
              "id": 332517,
              "title": "Rubber stamp",
              "classification": "Artists' Tools",
              "era": "20th century",
              "eraSource": "century",
              "period": null,
              "century": "20th century",
              "dated": "20th century",
              "culture": "American",
              "medium": null,
              "people": [],
              "imageUrl": "https://nrs.harvard.edu/urn-3:HUAM:STR019257",
              "museumUrl": "https://www.harvardartmuseums.org/collections/object/332517",
              "lastUpdate": "2026-05-09T04:39:27-04:00"
            },
            {
              "id": 332518,
              "title": "Glass eye dropper",
              "classification": "Artists' Tools",
              "era": "20th century",
              "eraSource": "century",
              "period": null,
              "century": "20th century",
              "dated": "20th century",
              "culture": "American",
              "medium": null,
              "people": [],
              "imageUrl": "https://nrs.harvard.edu/urn-3:HUAM:STR019419",
              "museumUrl": "https://www.harvardartmuseums.org/collections/object/332518",
              "lastUpdate": "2026-05-09T04:39:27-04:00"
            },
            {
              "id": 332519,
              "title": "Needlenose pliers",
              "classification": "Artists' Tools",
              "era": "20th century",
              "eraSource": "century",
              "period": null,
              "century": "20th century",
              "dated": "20th century",
              "culture": "American",
              "medium": null,
              "people": [],
              "imageUrl": "https://nrs.harvard.edu/urn-3:HUAM:STR019470",
              "museumUrl": "https://www.harvardartmuseums.org/collections/object/332519",
              "lastUpdate": "2026-05-09T04:39:27-04:00"
            }
          ]
        }
      ]
    },
    {
      "id": "classification:(not assigned)",
      "name": "(not assigned)",
      "count": 4,
      "subtopics": [
        {
          "id": "era:18th century",
          "name": "18th century",
          "eraSource": "century",
          "count": 1,
          "items": [
            {
              "id": 274901,
              "title": "Richard Brinsley Sheridan",
              "classification": "(not assigned)",
              "era": "18th century",
              "eraSource": "century",
              "period": null,
              "century": "18th century",
              "dated": "18th century",
              "culture": "British",
              "medium": null,
              "people": [
                "John Hall",
                "After Sir Joshua Reynolds"
              ],
              "imageUrl": "https://nrs.harvard.edu/urn-3:HUAM:INV100208_dynmc",
              "museumUrl": "https://www.harvardartmuseums.org/collections/object/274901",
              "lastUpdate": "2026-05-09T04:37:44-04:00"
            }
          ]
        },
        {
          "id": "era:20th century",
          "name": "20th century",
          "eraSource": "century",
          "count": 1,
          "items": [
            {
              "id": 262778,
              "title": "The Mussel Gatherers",
              "classification": "(not assigned)",
              "era": "20th century",
              "eraSource": "century",
              "period": null,
              "century": "20th century",
              "dated": "1913",
              "culture": "American",
              "medium": null,
              "people": [
                "Henry Wolf",
                "After Homer Dodge Martin"
              ],
              "imageUrl": "https://nrs.harvard.edu/urn-3:HUAM:INV154504_dynmc",
              "museumUrl": "https://www.harvardartmuseums.org/collections/object/262778",
              "lastUpdate": "2026-05-09T04:37:24-04:00"
            }
          ]
        },
        {
          "id": "era:Late Period to Roman",
          "name": "Late Period to Roman",
          "eraSource": "period",
          "count": 1,
          "items": [
            {
              "id": 292430,
              "title": "Collection of Beads and Amulets",
              "classification": "(not assigned)",
              "era": "Late Period to Roman",
              "eraSource": "period",
              "period": "Late Period to Roman",
              "century": "1st millennium BCE-1st millenium CE",
              "dated": "1st Millennium BCE-1st Millennium CE",
              "culture": "Egyptian",
              "medium": "Faience, fritware, stone, copper alloy, etc.",
              "people": [],
              "imageUrl": "https://nrs.harvard.edu/urn-3:HUAM:INV028585_dynmc",
              "museumUrl": "https://www.harvardartmuseums.org/collections/object/292430",
              "lastUpdate": "2026-05-09T04:38:13-04:00"
            }
          ]
        },
        {
          "id": "era:Unknown Era",
          "name": "Unknown Era",
          "eraSource": "unknown",
          "count": 1,
          "items": [
            {
              "id": 213615,
              "title": "Set of Four Pigment Brushes, from a set of Japanese printing tools",
              "classification": "(not assigned)",
              "era": "Unknown Era",
              "eraSource": "unknown",
              "period": null,
              "century": null,
              "dated": null,
              "culture": "Japanese",
              "medium": "Four wood or reed-handled brushes with plant-fiber tips",
              "people": [],
              "imageUrl": "https://nrs.harvard.edu/urn-3:HUAM:768118",
              "museumUrl": "https://www.harvardartmuseums.org/collections/object/213615",
              "lastUpdate": "2026-05-09T04:35:47-04:00"
            }
          ]
        }
      ]
    },
    {
      "id": "classification:Plaques",
      "name": "Plaques",
      "count": 4,
      "subtopics": [
        {
          "id": "era:16th century",
          "name": "16th century",
          "eraSource": "century",
          "count": 1,
          "items": [
            {
              "id": 277492,
              "title": "The Lute Player",
              "classification": "Plaques",
              "era": "16th century",
              "eraSource": "century",
              "period": null,
              "century": "16th century",
              "dated": "16th century",
              "culture": "Italian",
              "medium": "Etching on off-white antique laid paper",
              "people": [
                "Giovanni Francesco Grimaldi"
              ],
              "imageUrl": "https://nrs.harvard.edu/urn-3:HUAM:INV159081_dynmc",
              "museumUrl": "https://www.harvardartmuseums.org/collections/object/277492",
              "lastUpdate": "2026-05-09T04:37:49-04:00"
            }
          ]
        },
        {
          "id": "era:Bronze Age, Middle",
          "name": "Bronze Age, Middle",
          "eraSource": "period",
          "count": 1,
          "items": [
            {
              "id": 287362,
              "title": "Chariot Wheel or Sun Disk",
              "classification": "Plaques",
              "era": "Bronze Age, Middle",
              "eraSource": "period",
              "period": "Bronze Age, Middle",
              "century": null,
              "dated": "c. 2000-1000 BCE",
              "culture": "Near Eastern",
              "medium": "Terracotta",
              "people": [],
              "imageUrl": "https://nrs.harvard.edu/urn-3:HUAM:VRS15715_dynmc",
              "museumUrl": "https://www.harvardartmuseums.org/collections/object/287362",
              "lastUpdate": "2026-05-09T04:38:02-04:00"
            }
          ]
        },
        {
          "id": "era:Roman Imperial period",
          "name": "Roman Imperial period",
          "eraSource": "period",
          "count": 1,
          "items": [
            {
              "id": 288974,
              "title": "Votive Ornament",
              "classification": "Plaques",
              "era": "Roman Imperial period",
              "eraSource": "period",
              "period": "Roman Imperial period",
              "century": "1st-2nd century CE",
              "dated": "1st-2nd century CE",
              "culture": "Roman",
              "medium": "Gold",
              "people": [],
              "imageUrl": "https://nrs.harvard.edu/urn-3:HUAM:VRS15747_dynmc",
              "museumUrl": "https://www.harvardartmuseums.org/collections/object/288974",
              "lastUpdate": "2026-05-09T04:38:06-04:00"
            }
          ]
        },
        {
          "id": "era:Roman Imperial period, Middle",
          "name": "Roman Imperial period, Middle",
          "eraSource": "period",
          "count": 1,
          "items": [
            {
              "id": 288973,
              "title": "Silver Votive Ornament",
              "classification": "Plaques",
              "era": "Roman Imperial period, Middle",
              "eraSource": "period",
              "period": "Roman Imperial period, Middle",
              "century": null,
              "dated": null,
              "culture": "Roman",
              "medium": "Silver",
              "people": [],
              "imageUrl": "https://nrs.harvard.edu/urn-3:HUAM:INV028084_dynmc",
              "museumUrl": "https://www.harvardartmuseums.org/collections/object/288973",
              "lastUpdate": "2026-05-09T04:38:06-04:00"
            }
          ]
        }
      ]
    }
  ]
}